{
  "name": "hub-bot",
  "version": "0.0.1",
  "description": "A central hub for the new Information Age.",
  "author": "TAYAA Med Amine",
  "license": "MIT",
  "dependencies": {
         "async": "~1.4.2",
         "easyimage": "^2.0.3",
         "utf8": "~2.1.1",
         "xml2js": "~0.4.16",
            "commander": "^2.9.0",
            "ioctl": "2.0.0",
            "ioredis": "2.4.0",
            "mongodb-runner": "*",
         "express": "^4.13.3",
         "express-handlebars": "^2.0.1",
            "node-uuid": "^1.4.3",
            "node-static": "0.6.9",
            "node-rules": "^3.1.0",
         "node-rules": "^3.1.0",
         "rdfstore": "^0.9.17",
         "d3": "3.1.10",
         "neo4j": "1.1.0",
            "socket.io": "0.9.17",
            "autobahn": "^0.11.2",
            "simple-ssh": "^0.9.0",
        "coffee-script": "^1.9",
        "smtp-server": "^1.17.0",
        "native-dns": "^0.7.0",
        "rdfstore": "^0.9.17",
        "async": "^1.4.2",
        "busboy": "^0.2.9",
        "connect-busboy": "0.0.2",
        "lodash": "^3.10.1",
        "multer": "^1.0.3",
        "opencv": "^6.0.0",
        "speakable": "^0.3.0",
        "say": "^0.11.0",
        "parse-server": "*",
        "ldf-server": "*",
        "solid-server": "*",
        "mongodb-runner": "*",
        "freebase": "*",
        "soupselect": "*",
     "hubot-scripts": "latest",
     "hubot-hipchat": "^2.12.0-6",
     "hubot-irc": "0.2.8",
     "hubot-slack": "^3.4.2",
     "hubot-twilio": "^2.1.0",
        "hubot": "^2.18.0",
        "hubot-help": "^0.1.3",
        "hubot-diagnostics": "0.0.1",
        "hubot-heroku-keepalive": "^1.0.2",
     "hubot-cron": ">= 0.1.0",
     "hubot-pubsub": "^1.0.4",
     "hubot-partyline": "*",
     "hubot-mongodb-brain": "^0.1.1",
        "hubot-pugme": "^0.1.0",
        "hubot-shipit": "^0.1.1",
        "hubot-rules": "^0.1.0",
     "hubot-google-translate": "^0.1.0",
     "hubot-wikipedia": "^0.0.4",
         "hubot-google-images": "^0.1.2",
         "hubot-maps": "0.0.1",
         "hubot-tweets": "^0.0.1",
         "hubot-youtube": "^0.1.2",
     "hubot-reddit": "^0.0.1",
     "hubot-stackoverflow-search": "^0.0.1",
         "hubot-analytics": "^1.1.1",
         "hubot-vtr-scripts": ">= 1.0.7",
     "hubot-asana": ">= 0.0.0",
         "aws2js": "*",
         "big-integer": "1.1.5",
         "cheerio": "*",
         "child": "*",
         "child_process": "*",
         "chrono-node": "*",
         "clark": "*",
         "cleverbot-node": "*",
         "cradle": "*",
         "date-utils": "*",
         "githubot": "*",
         "gitio2": "*",
         "hashlib": "*",
         "htmlparser": "*",
         "hubot": "*",
         "hubucket": "*",
         "jquery": "*",
         "jsdom": "*",
         "lodash": "*",
         "mailchimp": "*",
         "mailer": "*",
         "moment": "*",
         "mongodb": "*",
         "nodepie": "*",
         "node-trello": "*",
         "ntwitter": "*",
         "oauth": "*",
         "pg": "*",
         "phantom": "*",
         "prowler": "*",
         "pypi": "*",
         "querystring": "*",
         "redis": "*",
         "sandbox": "*",
         "scribe-node": "*",
         "sh": "*",
         "soupselect": "*",
         "sprintf": "*",
         "strftime": "*",
         "textspark": "*",
         "twit": "*",
         "underscore": "*",
         "validator": "*",
         "wolfram": "*",
         "xml2js": "*",
         "xml2json": "*",
         "yelp": "*",

       "couchbase": "^2.3.0",
       "freebase": "^3.1.2",
       "hubot-dynamic-conversation": "^1.0.1",
       "hubot-conversation": "^1.1.1",
       "hubot-luigi": "^1.2.0",
       "hubot-syslogd": "^1.0.23",
       "hubot-xmpp": "^0.2.4",
       "mongodb": "^2.2.25",
       "n3": "^0.9.1",
       "node-cypher": "^0.1.4",
       "node-neo4j": "^2.0.3",
       "rdf": "^3.0.1",
       "redis": "^2.7.1",
       "sparql": "^0.1.3",
       "sparql-client": "^0.2.0",
       "activerecord": "^0.2.1",
       "async-work-queue": "^0.3.0",
       "coffee-resque": "^0.1.11",
       "coffeerest-api": "^0.1.35",
       "d3-node": "^1.0.1",
       "d3-queue": "^3.0.5",
       "d3-scale": "^1.0.5",
       "map-mongo": "^1.0.0",
       "mouse4j": "^0.1.1",
       "poutine": "^0.2.0",
         "rdfstore": "^0.9.17",
         "node-rules": "^3.1.0",
         "minio": "^3.1.3",
         "natural": "^0.5.0"
     }
}

