{
  "name": "hub-red",
  "version": "0.0.1",
  "description": "A central hub for the new Information Age.",
  "author": "TAYAA Med Amine",
  "license": "MIT",
  "dependencies": {
         "async": "~1.4.2",
         "easyimage": "^2.0.3",
         "utf8": "~2.1.1",
         "xml2js": "~0.4.16",
            "commander": "^2.9.0",
            "ioctl": "2.0.0",
            "ioredis": "2.4.0",
            "mongodb-runner": "*",
         "express": "^4.13.3",
         "express-handlebars": "^2.0.1",
            "node-uuid": "^1.4.3",
            "node-static": "0.6.9",
            "node-rules": "^3.1.0",
         "node-rules": "^3.1.0",
         "rdfstore": "^0.9.17",
         "d3": "3.1.10",
         "neo4j": "1.1.0",
            "socket.io": "0.9.17",
            "autobahn": "^0.11.2",
            "simple-ssh": "^0.9.0",
        "coffee-script": "^1.9",
            "rdfstore": "^0.9.17",
            "async": "^1.4.2",
            "busboy": "^0.2.9",
            "connect-busboy": "0.0.2",
            "lodash": "^3.10.1",
            "multer": "^1.0.3",
            "soupselect": "*",
        "node-red-node-mysql": "*",
        "node-red-node-email": "*",
        "node-red-node-google": "*",
        "node-red-node-twilio": "*",
        "node-red": "0.16.2",
        "node-red-dashboard": "*",
            "node-red-contrib-batcher": "*",
            "node-red-contrib-cron": "*",
            "node-red-contrib-eventsource": "*",
            "node-red-contrib-flow-combine": "*",
            "node-red-contrib-guarded-suspension": "*",
            "node-red-contrib-input-split": "*",
            "node-red-contrib-later": "*",
            "node-red-contrib-loose": "*",
            "node-red-contrib-parallel-iterator": "*",
            "node-red-contrib-rate": "*",
            "node-red-contrib-repeat": "*",
            "node-red-contrib-serial-iterator": "*",
            "node-red-contrib-scheduler": "*",
            "node-red-contrib-watchdog": "*",
        "node-red-contrib-chatbot": "*",
        "node-red-contrib-slackbot": "*",
        "node-red-contrib-twitter-stream": "*",
            "node-red-contrib-brain": "*",
            "node-red-contrib-brain2": "*",
            "node-red-contrib-cassandra": "*",
            "node-red-contrib-elasticsearch": "*",
        "node-red-contrib-amqp": "*",
        "node-red-contrib-growly": "*",
        "node-red-contrib-kafka-consumer": "*",
        "node-red-contrib-kafka-producer": "*",
        "node-red-contrib-mqttssl": "*",
        "node-red-contrib-pubnub": "*",
            "node-red-contrib-asterisk": "*",
            "node-red-contrib-chromecast": "*",
            "node-red-contrib-jenkins": "*",
            "node-red-contrib-kodi": "*",
            "node-red-contrib-mpd": "*",
            "node-red-contrib-plex": "*",
            "node-red-contrib-smstools": "*",
        "node-red-contrib-solar-power-forecast": "*",
        "node-red-contrib-forecast": "*",
        "node-red-contrib-sunevents": "*",
        "node-red-contrib-geonames": "*",
        "node-red-contrib-gpsd": "*",
        "node-red-contrib-web-worldmap": "*",
            "node-red-contrib-isonline": "*",
            "node-red-contrib-nmap": "*",
            "node-red-contrib-thingspeak": "*",
            "node-red-contrib-web-watch": "*",
        "node-red-contrib-json-schema": "*",
        "node-red-contrib-morse": "*",
        "node-red-contrib-pythonshell": "*",
        "node-red-contrib-simplejs": "*",
        "node-red-contrib-slugify": "*",
        "node-red-contrib-sql": "*",
        "node-red-contrib-timeseries": "*",
            "node-red-contrib-clipboard": "*",
            "node-red-contrib-keypress": "*",
            "node-red-contrib-micropi": "*",
            "node-red-contrib-play-audio": "*",
            "node-red-contrib-usb": "*",
        "dnr-daemon": "*",
        "dnrnode": "*",
        "node-red-contrib-dnr": "*",
        "redzilla": "*"
     }
}

