: 1454514304:0;exit
: 1454514401:0;ufw delete allow in 9000/tcp
: 1454514411:0;aptitude update ; aptitude safe-upgrade
: 1454522855:0;for key in hive sparkle intellivice ; if [[ ! -d /$key ]] ; then git clone git@bitbucket.org:saezuri/$key.git /$key ; fi ; done
: 1454522862:0;for key in hive sparkle intellivice ; do if [[ ! -d /$key ]] ; then git clone git@bitbucket.org:saezuri/$key.git /$key ; fi ; done
: 1454522878:0;for key in hive sparkle intellivice ; do if [[ ! -d /$key ]] ; then git clone git@bitbucket.org:saezuri/$key.git /$key --recursive ; fi ; done
: 1454522884:0;rm -fR /hive
: 1454522893:0;for key in hive sparkle intellivice ; do if [[ ! -d /$key ]] ; then git clone git@bitbucket.org:saezuri/$key.git /$key --recursive ; fi ; done
: 1454522926:0;cd /sparkle
: 1454522938:0;ll
: 1454522943:0;cd /bin
: 1454522961:0;for key in hive sparkle intellivice octopus senility ; do if [[ ! -d /$key ]] ; then git clone git@bitbucket.org:saezuri/$key.git /$key --recursive ; fi ; done
: 1455150082:0;exit
