{
   "version" : 2,
   "controller" : {
   },
   "workers" : [
      {
         "type" : "router",
         "options": {
            "pythonpath": [".."]
         },
         "transports" : [
            {
               "type" : "websocket",
               "endpoint" : {
                  "type" : "tcp",
                  "port" : 9000
               }
            },{
               "type" : "web",
               "endpoint" : {
                  "type" : "tcp",
                  "port" : "$PORT"
               },
               "paths" : {
                  "/": {
                     "type": "wsgi",
                     "module": "reactor.webapp.wsgi",
                     "object": "app"
                  },
                  "media": {
                     "type": "static",
                     "directory": "../files/media",
                     "options": {
                        "enable_directory_listing": true,
                        "mime_types": {
                           ".svg": "image/svg+xml"
                        }
                     }
                  },
                  "static": {
                     "type": "static",
                     "directory": "../files/assets",
                     "options": {
                        "enable_directory_listing": true,
                        "mime_types": {
                           ".svg": "image/svg+xml"
                        }
                     }
                  },
                  "upload": {
                    "type": "upload",
                    "realm": "reactor",
                    "role": "nerves",
                    "directory": "../files/uploads/done",
                    "temp_directory": "../files/uploads/temp",
                    "form_fields": {
                        "file_name": "resumableFilename",
                        "mime_type": "resumableType",
                        "total_size": "resumableTotalSize",
                        "chunk_number": "resumableChunkNumber",
                        "chunk_size": "resumableChunkSize",
                        "total_chunks": "resumableTotalChunks",
                        "content": "file",
                        "on_progress": "on_progress",
                        "session": "session",
                        "chunk_extra": "chunk_extra",
                        "finish_extra": "finish_extra"
                    },
                    "options": {
                        "max_file_size": 200000000,
                        "file_permissions": "0644",
                        "file_types": [
                            ".csv",
                            ".txt",
                            ".pdf",
                            ".img",
                            ".png",
                            ".jpg",
                            ".bz2",
                            ".xz",
                            ".gz"
                        ]
                    }
                  },
                  "longpoll" : {
                     "type" : "longpoll"
                  },
                  "junction" : {
                     "type" : "websocket",
                     "serializers": [ "json", "msgpack", "ubjson", "cbor" ],
                     "auth": {
                        "ticket": {
                            "type": "dynamic",
                            "authenticator": "reactor.authentify"
                        }
                     }
                  },
                  "hook-github" : {
                     "type" : "webhook", "realm" : "reactor", "role" : "nerves",
                     "options": { "topic": "reactor.apis.github.webhook" }
                  },
                  "hook-bitbucket" : {
                     "type" : "webhook", "realm" : "reactor", "role" : "nerves",
                     "options": { "topic": "reactor.apis.bitbucket.webhook" }
                  }
               }
            },{
                "type": "flashpolicy",
                "allowed_domain": "*",
                "allowed_ports": [
                    8080
                ],
                "endpoint": {
                    "type": "tcp",
                    "port": 60843
                }
            }
         ],
         "realms" : [
            {
               "name" : "reactor",
               "store": {
                   "type": "memory",
                   "limit": 100,
                   "event-history": [{
                       "uri": "reactor.logging",
                       "match": "exact", "limit": 1000
                   }],
                   "call-queue": [{
                       "uri": "reactor.logging",
                       "match": "exact", "limit": 1000
                   }]
               },
               "roles" : [{
                     "name" : "intellect",
                     "permissions" : [{
    "match": "prefix", "uri": "reactor.brain.",
    "allow": { "publish": true, "call": true, "register": true, "subscribe": true }
},{
    "match": "prefix", "uri": "reactor.spine.",
    "allow": { "publish": true, "call": true, "register": true, "subscribe": true }
},{
    "match": "prefix", "uri": "reactor.",
    "allow": { "publish": false, "call": true, "register": false, "subscribe": true }
                     }]
                  },{
                     "name" : "implant",
                     "permissions" : [{
    "match": "prefix", "uri": "reactor.mind.",
    "allow": { "publish": true, "call": true, "register": true, "subscribe": true }
},{
    "match": "prefix", "uri": "reactor.head.",
    "allow": { "publish": true, "call": true, "register": true, "subscribe": true }
},{
    "match": "prefix", "uri": "reactor.body.",
    "allow": { "publish": true, "call": true, "register": true, "subscribe": true }
},{
    "match": "prefix", "uri": "reactor.spine.",
    "allow": { "publish": true, "call": true, "register": true, "subscribe": true }
},{
    "match": "prefix", "uri": "reactor.",
    "allow": { "publish": false, "call": true, "register": false, "subscribe": true }
                     }]
                  },{
                     "name" : "nerves",
                     "permissions" : [{
    "match": "prefix", "uri": "reactor.mind.",
    "allow": { "publish": true, "call": true, "register": true, "subscribe": true }
},{
    "match": "prefix", "uri": "reactor.head.",
    "allow": { "publish": false, "call": true, "register": false, "subscribe": true }
},{
    "match": "prefix", "uri": "reactor.spine.",
    "allow": { "publish": true, "call": true, "register": true, "subscribe": true }
},{
    "match": "prefix", "uri": "reactor.apis.",
    "allow": { "publish": true, "call": true, "register": true, "subscribe": true }
},{
    "match": "prefix", "uri": "reactor.",
    "allow": { "publish": false, "call": true, "register": false, "subscribe": true }
                     }]
                  },{
                     "name" : "device",
                     "permissions" : [{
    "match": "prefix", "uri": "reactor.dev.",
    "allow": { "publish": true, "call": true, "register": true, "subscribe": true }
},{
    "match": "prefix", "uri": "reactor.spine.",
    "allow": { "publish": false, "call": true, "register": false, "subscribe": true }
},{
    "match": "prefix", "uri": "reactor.",
    "allow": { "publish": false, "call": true, "register": false, "subscribe": true }
                     }]
                  },{
                     "name" : "backend",
                     "permissions" : [{
    "match": "prefix", "uri": "reactor.",
    "allow": { "publish": true, "call": true, "register": true, "subscribe": true }
                     }]
                  },{
                     "name" : "authorizer",
                     "permissions" : [
                        {
                           "uri" : "reactor.authentify",
                           "match": "exact",
                           "allow" : {
                              "register" : true
                           }
                        }
                     ]
                  },{
                     "name" : "frontend",
                     "permissions" : [{
    "match": "prefix", "uri": "reactor.live.",
    "allow": { "publish": true, "call": true, "register": true, "subscribe": true }
},{
    "match": "prefix", "uri": "reactor.",
    "allow": { "publish": false, "call": true, "register": false, "subscribe": true }
                     }]
                  },{
                     "name" : "anonymous",
                     "permissions" : [{
                           "match": "prefix",
                           "uri" : "",
                           "allow" : {
                              "publish" : false,
                              "call" : false,
                              "register" : false,
                              "subscribe" : false
                           }
                     },{
                           "match": "prefix",
                           "uri" : "reactor.head.",
                           "allow" : {
                              "publish" : true,
                              "call" : true,
                              "register" : true,
                              "subscribe" : true
                           }
                     }]
               }]
            }
         ],
         "components" : [{
             "type": "class", "realm": "reactor", "role": "backend",
             "classname": "reactor.streams.gateway.Native"
         },{
             "type": "class", "realm": "reactor", "role": "backend",
             "classname": "reactor.streams.gateway.Authority"
         },{
             "type": "class", "realm": "reactor", "role": "backend",
             "classname": "reactor.streams.think.linguistic.Wernicke"
         },{
             "type": "class", "realm": "reactor", "role": "backend",
             "classname": "reactor.streams.think.linguistic.Broca"
         },{
             "type": "class", "realm": "reactor", "role": "backend",
             "classname": "reactor.streams.perso.Telecom.MailBox"
         },{
             "type": "class", "realm": "reactor", "role": "backend",
             "classname": "reactor.streams.media.Video.TVDB"
         },{
             "type": "class", "realm": "reactor", "role": "backend",
             "classname": "reactor.streams.media.Video.Trakt"
         },{
             "type": "class", "realm": "reactor", "role": "backend",
             "classname": "reactor.streams.media.Web.Bookmarks"
         },{
             "type": "class", "realm": "reactor", "role": "backend",
             "classname": "reactor.streams.media.Web.Cables.Feeds"
         },{
             "type": "class", "realm": "reactor", "role": "backend",
             "classname": "reactor.streams.media.Web.Cables.News"
         },{
             "type": "class", "realm": "reactor", "role": "backend",
             "classname": "reactor.streams.media.Web.Crawling.Spiders"
         }]
      },{
         "type" : "container",
         "options": {
            "pythonpath": [".."]
         },
         "components" : [{
               "type": "class",
               "classname": "reactor.streams.intello.Semantic",
               "realm": "reactor",
               "transport" : {
                  "type" : "websocket",
                  "url" : "ws://127.0.0.1:9000",
                  "endpoint" : {
                     "type" : "tcp",
                     "port" : 9000,
                     "host" : "127.0.0.1"
                  }
               }
         }]
      },{
        "type": "guest",
        "executable": "cyborg",
        "arguments": ["spinal"
            ,"-mw","fleet.Reflect"
            ,"-mw","fleet.Manage"
            ,"-mw","fleet.Contain"
        ],
        "options": {
            "workdir": "../",
            "env": {
                "inherit": true,
                "vars": {
                    "PERSON_ID": "tayamino",
                    "LANGUAGE":  "en"
                }
            },
            "watch": {
                "directories": [
                    "../profiles"
                ],
                "action": "restart"
            }
        }
     }
   ]
}
