{
  "title": "My Linked Data Fragments server",
  "baseURL": "http://stream.uchikoma.faith/ldf/",
  "datasources": {
    "dbpedia": {
      "title": "DBpedia 2014",
      "type": "HdtDatasource",
      "description": "DBpedia 2014 with an HDT back-end",
      "settings": { "file": "data/dbpedia2014.hdt" }
    },
    "dbpedia-sparql": {
      "title": "DBpedia 3.9 (Virtuoso)",
      "type": "SparqlDatasource",
      "description": "DBpedia 3.9 with a Virtuoso back-end",
      "settings": { "endpoint": "http://dbpedia.restdesc.org/", "defaultGraph": "http://dbpedia.org" }
    },
    "dbpedia_2015": {
      "title":       "DBpedia v2015",
      "description": "DBpedia v2015 with an HDT back-end",
      "type":        "HdtDatasource",
      "settings":    {
        "file": "/data1/dbpedia/cdata_2015.hdt"
      },
      "memento": {
        "interval": ["2014-09-14T11:59:59Z", "2015-04-15T00:00:00Z"]
      }
    },
    "dbpedia_2014": {
      "title":       "DBpedia v2014",
      "description": "DBpedia v2014 with an HDT back-end",
      "type":        "HdtDatasource",
      "settings":    {
        "file": "/data1/dbpedia/cdata_2014.hdt"
      },
      "memento": {
        "interval": ["2013-06-15T11:59:59Z", "2014-09-15T00:00:00Z"]
      }
    }
  }
}
